0,30,0
0.1,30,18
0.2,30,36
0.3,30,54
0.4,30,72
0.5,30,90
0.6,30,108
0.7,30,126
0.8,30,144
0.9,30,162
1,30,180
1.1,30,198
1.2,30,216
1.3,30,234
1.4,30,252
1.5,30,270
1.6,30,288
1.7,30,306
1.8,30,324
1.9,30,342
2,30,360
2.1,30,378
2.2,30,396
2.3,30,414
2.4,30,432
2.5,30,450
2.6,30,468
2.7,30,486
2.8,30,504
2.9,30,522
3,30,540
3.1,30,558
3.2,30,576
3.3,30,594
3.4,30,612
3.5,30,630
3.6,30,648
3.7,30,666
3.8,30,684
3.9,30,702
4,30,720
4.1,0,720.09
4.2,0,720.09
4.3,0,720.09
4.4,0,720.09
4.5,0,720.09
4.6,0,720.09
4.7,0,720.09
4.8,0,720.09
4.9,0,720.09
5,0,720.09
5.1,0,720.09
5.2,0,720.09
5.3,0,720.09
5.4,0,720.09
5.5,0,720.09
5.6,0,720.09
5.7,0,720.09
5.8,0,720.09
5.9,0,720.09
6,0,720.09
6.1,0,720.09
6.2,0,720.09
6.3,0,720.09
6.4,0,720.09
6.5,0,720.09
6.6,0,720.09
6.7,0,720.09
6.8,0,720.09
6.9,0,720.09
7,0,720.09
7.1,-60,684.27
7.2,-60,648.27
7.3,-60,612.27
7.4,-60,576.27
7.5,-60,540.27
7.6,-60,504.27
7.7,-60,468.27
7.8,-60,432.27
7.9,-60,396.27
8,-60,360.27
8.1,0,360.09
8.2,0,360.09
8.3,0,360.09
8.4,0,360.09
8.5,0,360.09
8.6,0,360.09
8.7,0,360.09
8.8,0,360.09
8.9,0,360.09
9,0,360.09
9.1,0,360.09
9.2,0,360.09
9.3,0,360.09
9.4,0,360.09
9.5,0,360.09
9.6,0,360.09
9.7,0,360.09
9.8,0,360.09
9.9,0,360.09
10,0,360.09
10.1,0,360.09
10.2,0,360.09
10.3,0,360.09
10.4,0,360.09
10.5,0,360.09
10.6,0,360.09
10.7,0,360.09
10.8,0,360.09
10.9,0,360.09
11,0,360.09
11.1,3,360.99
11.2,6,363.69
11.3,9,368.19
11.4,12,374.49
11.5,15,382.59
11.6,18,392.49
11.7,21,404.19
11.8,24,417.69
11.9,27,432.99
12,30,450.09
12.1,27,467.19
12.2,24,482.49
12.3,21,495.99
12.4,18,507.69
12.5,15,517.59
12.6,12,525.69
12.7,9,531.99
12.8,6,536.49
12.9,3,539.19
13,0,540.09
13.1,0,540.09
13.2,0,540.09
13.3,0,540.09
13.4,0,540.09
13.5,0,540.09
13.6,0,540.09
13.7,0,540.09
13.8,0,540.09
13.9,0,540.09
14,0,540.09
14.1,0,540.09
14.2,0,540.09
14.3,0,540.09
14.4,0,540.09
14.5,0,540.09
14.6,0,540.09
14.7,0,540.09
14.8,0,540.09
14.9,0,540.09
15,0,540.09
